module gitlab.com/coresquad/madock

go 1.21.5

require (
	github.com/docker/docker v25.0.3+incompatible
	github.com/olekukonko/tablewriter v0.0.5
	github.com/urfave/cli/v2 v2.27.1
	gopkg.in/yaml.v3 v3.0.1
)

require (
	github.com/Microsoft/go-winio v0.4.14 // indirect
	github.com/containerd/log v0.1.0 // indirect
	github.com/cpuguy83/go-md2man/v2 v2.0.2 // indirect
	github.com/distribution/reference v0.5.0 // indirect
	github.com/docker/go-connections v0.5.0 // indirect
	github.com/docker/go-units v0.5.0 // indirect
	github.com/felixge/httpsnoop v1.0.4 // indirect
	github.com/go-logr/logr v1.4.1 // indirect
	github.com/go-logr/stdr v1.2.2 // indirect
	github.com/gogo/protobuf v1.3.2 // indirect
	github.com/mattn/go-runewidth v0.0.9 // indirect
	github.com/moby/term v0.5.0 // indirect
	github.com/morikuni/aec v1.0.0 // indirect
	github.com/opencontainers/go-digest v1.0.0 // indirect
	github.com/opencontainers/image-spec v1.1.0 // indirect
	github.com/pkg/errors v0.9.1 // indirect
	github.com/russross/blackfriday/v2 v2.1.0 // indirect
	github.com/xrash/smetrics v0.0.0-20201216005158-039620a65673 // indirect
	go.opentelemetry.io/contrib/instrumentation/net/http/otelhttp v0.49.0 // indirect
	go.opentelemetry.io/otel v1.24.0 // indirect
	go.opentelemetry.io/otel/exporters/otlp/otlptrace/otlptracehttp v1.24.0 // indirect
	go.opentelemetry.io/otel/metric v1.24.0 // indirect
	go.opentelemetry.io/otel/sdk v1.24.0 // indirect
	go.opentelemetry.io/otel/trace v1.24.0 // indirect
	golang.org/x/sys v0.17.0 // indirect
	golang.org/x/time v0.5.0 // indirect
	gotest.tools/v3 v3.5.1 // indirect
)
